Age, Density, and Late-Stage Breast Cancer
…
# A tibble: 2 × 3
  stage_advanced       n proportion
  <chr>            <int>      <dbl>
1 0              2511442   1.000   
2 1                 1135   0.000452

The classes are highly imbalanced. A model that already predicts “early stage” would already get overall high accuracy, even while missing most advanced cases. Down sampling might be needed to help the model better identify minority (advance-stage) cases.

mammography%>%
  filter(invscrfu1yr_c == 1) %>%
  count(agegrp, density_c, stage_advanced) %>%
  group_by(agegrp, density_c) %>%
  mutate(prop = n / sum(n))

# A tibble: 40 × 5
# Groups:   agegrp, density_c [20]
   agegrp density_c stage_advanced     n  prop
   <chr>  <chr>     <chr>          <int> <dbl>
 1 40-49  a         0                 15 0.833
 2 40-49  a         1                  3 0.167
 3 40-49  b         0                273 0.869
 4 40-49  b         1                 41 0.131
 5 40-49  c         0                560 0.814
 6 40-49  c         1                128 0.186
 7 40-49  d         0                183 0.762
 8 40-49  d         1                 57 0.238
 9 40-49  unknown   0                118 0.868
10 40-49  unknown   1                 18 0.132
# ℹ 30 more rows
…
